{
    "defaultSeverity": "error",
    "extends": [
        "tslint:recommended"
    ],
    "jsRules": {},
    "rules": {
        "no-var-requires": false,
        "variable-name": false,
        "no-console": false,
        "curly": false,
        "arrow-parens": false,
        "max-classes-per-file": false,
        "quotemark": [true, "single"],
        "no-any": true
    },
    "rulesDirectory": []
}